date_sent,email_name,segment,full_name,email_address,member_id,opened,clicked,zipcode,inserted_date,for_month,for_year,marketo_id,isprevious
,,,Elizabeth McIlmurray,emcilmurray0@cam.ac.uk,,,,\N,2020-10-20 20:06:45,11,2020,1,1
,,,Lynett Gales,lgales1@amazon.de,,,,\N,2020-10-20 20:06:45,11,2020,2,1
,,,Mareah Doogue,mdoogue2@edublogs.org,,,,\N,2020-10-20 20:06:45,11,2020,3,1
,,,Stanly Gerran,sgerran3@unc.edu,,,,\N,2020-10-20 20:06:45,11,2020,4,1
,,,Rupert Godby,rgodby4@paypal.com,,,,\N,2020-10-20 20:06:45,11,2020,5,1
,,,Yank Sorro,ysorro5@soundcloud.com,,,,\N,2020-10-20 20:06:45,11,2020,6,1
,,,Brice Pettecrew,bpettecrew6@chronoengine.com,,,,\N,2020-10-20 20:06:45,11,2020,7,1
,,,Ophelie McGookin,omcgookin7@jiathis.com,,,,\N,2020-10-20 20:06:45,11,2020,8,1
,,,Dukie Bladon,dbladon8@guardian.co.uk,,,,\N,2020-10-20 20:06:45,11,2020,9,1
,,,Dimitri Nossent,dnossent9@networkadvertising.org,,,,\N,2020-10-20 20:06:45,11,2020,10,1
,,,Haley Lenglet,hlengleta@nasa.gov,,,,\N,2020-10-20 20:06:45,11,2020,11,1
,,,Opal Vanshin,ovanshinb@google.fr,,,,\N,2020-10-20 20:06:45,11,2020,12,1
,,,Maryann Matherson,mmathersonc@icq.com,,,,\N,2020-10-20 20:06:45,11,2020,13,1
,,,Gerhard Signoret,gsignoretd@japanpost.jp,,,,\N,2020-10-20 20:06:45,11,2020,14,1
,,,Denys Simkiss,dsimkisse@bigcartel.com,,,,\N,2020-10-20 20:06:45,11,2020,15,1
,,,Odo Isacke,oisackef@homestead.com,,,,\N,2020-10-20 20:06:45,11,2020,16,1
,,,Wain Rutherford,wrutherfordg@google.ru,,,,\N,2020-10-20 20:06:45,11,2020,17,1
,,,Viviene Wherrett,vwherretth@google.es,,,,\N,2020-10-20 20:06:45,11,2020,18,1
,,,Ainslie Grainge,agraingei@xinhuanet.com,,,,\N,2020-10-20 20:06:45,11,2020,19,1
,,,Ber Trodd,btroddj@reverbnation.com,,,,\N,2020-10-20 20:06:45,11,2020,20,1
,,,Finley Lukacs,flukacsk@twitter.com,,,,\N,2020-10-20 20:06:45,11,2020,21,1
,,,Jefferey Baxstare,jbaxstarel@apache.org,,,,\N,2020-10-20 20:06:45,11,2020,22,1
,,,Elvis Gollin,egollinm@ucoz.com,,,,\N,2020-10-20 20:06:45,11,2020,23,1
,,,Maye Catonnet,mcatonnetn@skyrock.com,,,,\N,2020-10-20 20:06:45,11,2020,24,1